<?xml version="1.0" encoding="UTF-8" standalone="no"?>
<!-- Created with Inkscape (http://www.inkscape.org/) -->

<svg
   version="1.1"
   id="svg62"
   width="64"
   height="64"
   viewBox="0 0 64 64"
   sodipodi:docname="airstrip_single.svg"
   inkscape:version="1.2.1 (9c6d41e410, 2022-07-14)"
   xmlns:inkscape="http://www.inkscape.org/namespaces/inkscape"
   xmlns:sodipodi="http://sodipodi.sourceforge.net/DTD/sodipodi-0.dtd"
   xmlns:xlink="http://www.w3.org/1999/xlink"
   xmlns="http://www.w3.org/2000/svg"
   xmlns:svg="http://www.w3.org/2000/svg">
  <defs
     id="defs66">
    <linearGradient
       id="linearGradient4735"
       inkscape:swatch="solid">
      <stop
         style="stop-color:#000000;stop-opacity:1;"
         offset="0"
         id="stop4733" />
    </linearGradient>
    <linearGradient
       id="linearGradient2523"
       inkscape:swatch="solid">
      <stop
         style="stop-color:#000000;stop-opacity:1;"
         offset="0"
         id="stop2521" />
    </linearGradient>
    <linearGradient
       id="linearGradient2467"
       inkscape:swatch="solid">
      <stop
         style="stop-color:#1e90ff;stop-opacity:1;"
         offset="0"
         id="stop2465" />
    </linearGradient>
    <marker
       style="overflow:visible"
       id="marker2343"
       refX="0"
       refY="0"
       orient="auto-start-reverse"
       inkscape:stockid="TriangleStart"
       markerWidth="5.3244081"
       markerHeight="6.155385"
       viewBox="0 0 5.3244081 6.1553851"
       inkscape:isstock="true"
       inkscape:collect="always"
       preserveAspectRatio="xMidYMid">
      <path
         transform="scale(0.5)"
         style="fill:context-stroke;fill-rule:evenodd;stroke:context-stroke;stroke-width:1pt"
         d="M 5.77,0 -2.88,5 V -5 Z"
         id="path2341" />
    </marker>
    <marker
       style="overflow:visible"
       id="TriangleStart"
       refX="0"
       refY="0"
       orient="auto-start-reverse"
       inkscape:stockid="TriangleStart"
       markerWidth="3.3239999"
       markerHeight="3.8427744"
       viewBox="0 0 5.3244081 6.1553851"
       inkscape:isstock="true"
       inkscape:collect="always"
       preserveAspectRatio="xMidYMid">
      <path
         style="fill:context-stroke;fill-rule:evenodd;stroke:context-stroke;stroke-width:0.5pt"
         d="M 2.885,0 -1.44,2.5 v -5 z"
         id="path135" />
    </marker>
  </defs>
  <sodipodi:namedview
     id="namedview64"
     pagecolor="#ffffff"
     bordercolor="#666666"
     borderopacity="1.0"
     inkscape:showpageshadow="2"
     inkscape:pageopacity="0.0"
     inkscape:pagecheckerboard="0"
     inkscape:deskcolor="#d1d1d1"
     showgrid="false"
     inkscape:zoom="10.429825"
     inkscape:cx="20.230445"
     inkscape:cy="30.729183"
     inkscape:window-width="1916"
     inkscape:window-height="1094"
     inkscape:window-x="0"
     inkscape:window-y="0"
     inkscape:window-maximized="1"
     inkscape:current-layer="g68" />
  <g
     inkscape:groupmode="layer"
     inkscape:label="Image"
     id="g68">
    <image
       width="64"
       height="64"
       preserveAspectRatio="none"
       xlink:href="data:image/png;base64,iVBORw0KGgoAAAANSUhEUgAAAEAAAABACAIAAAAlC+aJAAAABGdBTUEAALGPC/xhBQAAAAFzUkdC AK7OHOkAAAAgY0hSTQAAeiYAAICEAAD6AAAAgOgAAHUwAADqYAAAOpgAABdwnLpRPAAAGadJREFU aAWNwcuvpel5FfC1nuf9vr3PpU5VV3d1dVd1t7vbjkmEIUEhIhmAkDCMUAaRwgRBRhkyAYkhEkj8 A4g7EgwYREKISBASkgAicQgXJdjEOLbjS9/cXZeuy6mqc87e+3vfZy32KcdRSGKU36/97w8e0QCM 5/qy/Qd/5ydrqWmdb376B370L/917JEGJEUEQAMgAAI4e/b46OQ6vsMgvo34Log/DOIPgQDa+9/4 4htv/zGS2DPufPhBjTI8Rt376Jsg8Zyl7XZ7eHgEgoBB7BH/+p/93R/9q3/j+o1bAAyQ+D2M30H8 HsQfAvE7iN9t2e2ytfbv/+Xfu37j5vd+/4988jN/6sq1G0dXruYUfTtU2Jw9M0ASwKg6PDquqmyJ SwRg+Onp/Xd+6/PXXno1IggYz5H4DuIPRDxnPEd8d8QfiHCNWK3adntx9uT0C7/6C7/x3//jy699 anX8QvWyoeGde++7eXUAwCRIEBfnFwfHx3ju2eMHm4vzr37+c5/5oc+u1gdVI7L92ud+9gd++LNt WoH4LojvhviDGd9mfIcA0GYbXZtttabW8lvvfnW3vagyCcPTfPjg/r2bt98kWaVnTx8tu+X46ovG bzs/fzZ6bXcXkZOM//GffupP/Okfe+erX7j15qdffePTAKSKSHwXxu9j/DbD+L0Mw/gdAmS3qspk L0eA9sVmJ8nyNLca/ef/1T+Z11fe+J7PbM/v3fvg6ycvvPLZv/TXZMAGo/fFxuP7H/axIOILv/pz 3/uDf+HR/buPH3584/anIuIXf/qf//kf+0n8Psb/l2F8m43fxbhkAzAghORWJRDzFCWUypcA0IRV qOX82aMv/Mq/kzdalkf37p4+uj/N00//07/9V/7m37//4buWt9u+225jWj97+uzD976yuTh/8uhj MGR84zd//Yc/++OHx1dB4v9h/D4GsWdcsk38NhvP2bhkAzAwyiG31aqt5yQhcQz2nDR2Y5S3Xq8P UGNObPqmvNTQdnvxCz/1j8bYPrz70a9/7hfPT+9ViRmj/NG7X91t+uMH9y/Onp6fnY/y2dNHp48e /MO/9RN/5i/+xCtvfPrg+Mo3vvz5P/qDf3Z1cBTZAGOPgPEcARt7hvFtVbXstk9PT1fr9cHR8TRN 2DOWzdnjj77+8b27H7z7tRYMVTcI2ujrmZtzwTCcyWwOovexW8Y8hWpM6Jvdpkpf/JWf631ru8pf +OX/8M7XvjCG/tcv/czZk9NpdfDowd3f+G8///TRw9XM3/qN//n40cMvfO7fHl2/+V/+zT9+4ZU3 f+jP/fjb3/cn14fHfVnGGJvNdvP09MGj0za148P1+dnZo0ePd7slIKhkGADjpasH4f7kwQeP7n0r CVc9OButm5ttn1pK2vTdWHRwtN6cbxhtGI9OnxKWgYilO1qent6Xy4gaZ+oLjCC/8r/+8+MHdy0+ vn+vqj5652v/9Wf/xbVX/khfRjA3Fxe/9ks/c356OjCP7fbrX/riu1//8u03v3den7zy1vcfHr8A R+3OtHmSY/Pe0MXFk/XRi09O71w7urLbPnv87PHVqzc5tjXhouvZpiJj4nh2dnF8dNje/eDRPAVz tZ4ZxMW2t/TVw3np2mwvMqOXq4+yLK5XcbY5tWHV7u7DIBDTZouLD+/BJNuQgelLv/bLGnX/3ufn XC3b+tpvfiWpqjh7+DAyppxmxtmdb0Zwc/fLMR0yD1Vj1QqoXt5uz8R5lbjgvNkuhwftw7sfxTTT 28wAEqEq9e0mlutt2e22W9vnkmzXKNl14+rT82W3LKt5ygDJ9Wo+XE/bi900ZZXmOcIV4OG6RWRG y2QGWxJwy2iNtuYpQADOAGAYoCWDuV4dR66N9fm2lqWvV6ujo9n96W57ShyTDNKGvcKllEWsjAhG RIIMXrXdfuSPvxbBvXkKMlpjBPoYV47WAKSyDcDYc5C2CYKQKsAhAchIALJlEXsOBsEIZoTtUT1y dsyR62xrum2X5Xy3Pb84G6MIZHK3xDxfOzl8Sdrsts+W3ZaQUVXd7nguI8HYbrVeNTAzor10fQUj IhhBXCpXZCxjKVevYRtAMILMSIAlybAcjCAJL30Z1QFMmVNrLXPKbDnNq0PHXA7muuRxqTbbsSzb 7bK7ON8cHx/3ZZNp2hqjyG4xpvXBjavXVlVaem23W2ujWqQBD4EMyZBcFc0lkGMMAyQzp8xVC8oK Fd1tkYwIwLvdKNXBerItSK6SuZec24pAMA4Or6zXR9kOwHnpo6q013dVGjV6H72P7W639H58fPTk yRNGXDvCsEpmiYywparaRHBq7fjFa1FzbZ8uFzuAkga6pIyMQGObYGPPl/oYy+i4ZEC4ZJtVkj00 qiRFRkSGTdmMXK+vzPNBmw5bW4290rKTtNElSyrVGFVjLH300Zc+jg6Prp6cPHnyLCLWU50tlG25 JMKIkANCjbGRgjEfvnzl6i2M84vHdwnBCRh022y3sizvgbBBgM9hj7RVkqwgjcjWjGCujo5O5vkw co6YlqWXapR738qyYe1ZUlWNek7qve92i+15nm+9evOrX/tGBINsIQGUHJJYjJACEGkzAQHa7pal k3n08qcbpeVsc35qjdZHtyzLhvYs2wQiMpLBiIyptcxptTq4cuWFaVplW9lYlj6qPIY8YMu2bNiS jZKqSnKpqsYYNfpYxpBcVfLyf770lWyZESSe7WbbgMuGRRFBSBHhSyBhAzYjzs7OSLa2Pn7p7UBv kgyTYDBbi0tJwIDt1erg5MoLq/VRa2sydrtd71r6VpINA/5dJO9JslWSSpJHDVX1UaUCoJLt7XY3 TxPoiABwsWRL2PAlSEVSIKQIArJDkhHUyAiQkk57J9kODg9hk/QebHleHR4dXTs4OJ7ntY3Ndtu7 et/ZgiEANgB5D4AtlwXDtp6rku2qUVKNGlW9155tBlzOYAQNgAARJAgbAGEbUFVkmrTxnAFoFDNc IgmCVJBt9DFN07w6vHJ8bZ4Pp3ktabfb1fB538DaM2DDBgkbtgDIl7BnW5ZKe4ZKlsoaY1Spj1GS rbI+8fqtw8PDr3z168EAHAyCQYKXZKVlB0CTsKRggABI2xFhSQAZJAANoL319mdam6tqu932oT42 vqQ9G7ZsAwHAtmTDlkkYkG1dslSygaohyXYfqktj9GHQ9u1Xb75269Uvffm3Yo9BYo8EjO+gbBhJ WBKClBggoIoI27hkQxb4XNtuF7IbhGFZLsmyYQGwYezJsgGSNgRDVsmALBkq71UNS2XXGJKXPrzH 6KPffOmlt99645133js7OyNolxEgEwQJCAZJeE8SI8K4VCUiAUti8BJoiQzZsJtlAXJZsmHYxp4N eA+GbOyR1F4JgC3ZJUgFS7YMGaNKJdujylKp9q5dvfapT7718NHp3XsPIlIWEQCSQZoEEQBhFNwA AyakEWREyI4IwxBICGKEAdsEWx8FwJZtkDbgSyRtywZsQwZhw4D3qixbsmzAGhYMiwzTAErqY0i+ cnz0qU++Jdc3333fFhASSJNEEhEADdoAQVwyYAkggmAAsBQR3oMN0AafM5ovwYYBSAZgAB4SjAzK tGVb8nPwHizJEgypZMO0XTX6qGW3MBjEweHqU598s6W/+c57m81ubq0vg0S0MESDMCAiQRpMEIJp thaADdkBgLBNwDYjJBGITMOtJNu0QVQJoOAgYQPoo3yJeyXJgAGUZcl7krBnlKpKMkavCFqep/Y9 n3r7+rWrHz94fP/+w8wkXao2JRktg0CABgEEWZYZtsiQRTJIqxBNtkPJS7KDtGUrGM0WAdmSYZiG LVmWbQC2DFqwQMKyAAu2JAMsqSRYUu2WJSKqGMFPvv3m9evXn56dffVr38hoGSl5mjMYZTcGYQNB M8J7IBm2SAYDsEoMGg4QpmAAQVQ5gt6jW2nPJGFbskWGQQAkxpBhXLJsyJdgG6NKMo0aYxlFslSM NByBN15/7fjkysVu+8UvfaXXmLLBMpDZYCdBWjKlnMKGYQZLFSDsKkWQAGFYJgmQNC6RJlKCjQaD hHUJCLDZgm1KZQMkYZRUEkl5D6qSZLukXR8ZYThb7ra7iHz15ZeuXb0q48Nv3Tk732Tmem6AXQaC GAGOckQABkgYICNUxYjMHL2DAQImCNk0LUWmyZZhyQDIphq2AeKSVWVAliUibJG0PapIyhp9kGHL lo0xKoNywRijInhy5fDWrRuMfPDw8YffupOM1TSpyna2SVVsrWCSEQHXXosEBOceAJXIkJhJMEoG EQRg2pDKQUbLGKpmG+CQDRCQBRs2bKmypSXLLpsYJQGwWgZkwIywQWC37II8OTr8zPd9z66PZVnu fnTX0sF6xWT1YZrCkFacgVBJIImMkJkZhKvcgqYNB2MMzQ3Zmp4L0pYMBxphqUW2skkAdtk0TNtk 2AV6tywRMUb5EgVttpvVvBIB2zBgkrtdn6dpNbe33n59s91G5N07956dnU3TxGAJzIQK9Go9S7Jg gQ0EZMAy2BwuKyGMlg1WRhiUBCtIyQYjApbMiCip2VBVMLBnSrIVgVIZkFVDBKUqeYwxt0ZijGGL IM2yW7Zpyrc/+dbh4dHZs2enT08/uns/9phDhp0JB3uXLBKukdkIAyDZWlYVQFJgLGNkTmVBY51T VbWWYwgEDAIwLJdrimg1imRJJiAHKRAGwBoLGETYHr1AT62BUaNsBQlStmVJr732Rkaenz3b7Zb3 P/woAvPU+hgtcpSiNZCcWsnci2xTwmYkLhmAaWaQDFISgcwoWeCQBVuYGywhwnJk2G4AJROwLRsm 4Kphi9GqLNXovbXITJC9S1Xci+zVYct4443bJ1euLMt26f3ug4d0TPMMVBC992ledTGIoFuShERa BG0D7EMkSMiWa5VBGmSAe5CMMEi6JIBzhlAahWSz4T3CBhiwqgpkso1RlkZfGJGZeg7S1JJk11AV gJs3b56cHO/6IuPJ0/PHj59MrYFQOVuOBWOM1hpJ25LmKYwim+QIgiboPYFwRAC0nS1Vrl4ZBEQa NkgCJQUJAmYDbNIGiQBHrwgCGFV99FIxI7MNaSwdwNRaBJcxRkn2Kzdeev21W8uybLfbUbp7734m pokEMnMZ1VpmRAaHPLUALEMyGCCClAQatgwDNDPCkKVRPdskOh0wDBIgYA1myCKzGbJkAWTJQ4NG SUsXgDY1gjXGWDqAyDBQ2CPsG9evvfrqK4ChMU/x7rvvjtHnaVYhA7Kn1mQKHqMiog9HoKqYjZyC ImgQAIMRHLIhkyU1EAZJWZQAZoZKOTVV9SESRDQAFgxAl0gsY2x3o7U2Tc2GARskI4OkAZcgXTs5 /sSbb2bmZnMRwEcf3d1sd/M0tZZkyh4l0pEtEKZB9lFH89QXExhjISIjMyhYxowsF4AgHDTZ5qn6 yKnJnjODFGRVRJBBhqxWoxihUbZ3ve+WrhoHBweRjeSoYdlWm6bW0pbtUZpX063bt1pr2+12jNpc bB4+ehKZ8zwHUrZUkRkZeyRTrKqWMYYzI5MRaVuGYRKGSQYRDAJVmiKrRrS0zIyC+6jgXpLYk2Sh LaNachmjRpXKqvV6lZnSYCRswHa1nJelZ3CUWptef/31g9Xh06fPqkZVvff+BybnqZGwUaVRakHY GkM2hOp9Wq1Ilg3ZHgAy05LsyBxwRNqWkZm9LxFpGzDBKpEMsKpaJklDkdmC2ccYpd4HicPDwwiq 9JzJALBer5c++qgKEvHa7Vsnx8dL79kyMj745ntVNc1zkGPYGmRMbQKqZfQ+alRrbbVem5RtGdFI 2a7qJDNz1MhI2JG0EJFMSzYQEZJIBi9JMkxAEuk2NC4utranqU1TiwhJIJ7jHuBekhwRy+iv3X71 5OqVi8327OL8+Pjo8aPTJ09OV/McDBUiQioSvQ9AEZymBkQkI1jlYBQrgjABk1zNc++VaJZbplQG GglnBkd124yArVBmTkjJCGdEye3i4kLyarWapwa7qgCQlkZms2GySqXqfdx85caNGy/Oq6n3fnx0 tOyWe/c+Xq9WmRNJw7ZUIwPTBCBapgwQsEtgpuTVehWERhERzD4GEAwQGFUkk9QYDAJsOdvODBKZ UXLANMZwJkg0Aut5NU8tkzb7UqBskczMZRmSJSP44ovXPvX2my3bbrcD3Fq+//59oEiQJijLMiPG qNbYWvbRx1BEGiQ8+siWYxRsl+YpAclMAmCQScjoVUkGIhqitbEstmzsBaMsgoDBgNXWq1XLjKTk KgmlMaapBbN3V2m327aWN168/vabn5iS2+12VM3z/OGHd87OzuI5MlU1tVyqM0N92KwSiWlKGyT2 gqxe82oCoKCsIBmtBMA2h73KTICkqkbVDNhSIVpbel/NczAkZSZhw22em+TtdoAAuduNg8M1gGUs GSwVAycnR6/fvnVwcLDd7p4+fXrj5ZefPHny6NEj0pkzAKm+bWopMLMxEMFRFYwxapoSYJUiGDSC kklOU6uKocpMkvOUm93SMmFnZstgZgB916dwkLJLStJ2gDaaDckAbPfeDw4Pxhi9D5JWTW0+Pjp4 +61PXL16AjCyHZ8cP316+v7775dMTgDGWIJhe2q5tyxjnifDu2UwgsAoGZham6b0JQCOJMjelRmZ SbL2kiWRzAgQo/dgqBQBQyAlT61BlsQWKrfea4wqq0qr9czgGBURKuWU8zS//vqtK1euVrlNkzGW 7e6jO3fOLrZwrOYmqbUJUjw3qkiUiiQAkma0qe3RsD1K85yjBoDI5ipLGdn7aFPuRaTt1kJjACJA UvDoyzRNAGgCmForVTDasnRbiFit54zsSwcw+iAZiFu3br7wwrVpXlWN84vNPE+2nzw7G8MR3vUl gwmUxcC2LxCiJcnRBxkwShXBvnQbrTXJEltOYyy0DUiyANhyX0aQBImIaBkoFZkRKSmSlsjYLcvU 5oww0Ja+tIhpai6VUEPT1CxnxO3br7z00outtWdnZ6qapvn08ek3vv6OhdU89zEiOGX0MQCQjEvQ Xg0C2aJKwbCU2WzP0zRPE+DRy0gJklbTXCqbQWTLvitJU5sJ9rFIWq3WQGQ2AiWBmKdJpcjsVS0z 5nmuUkSz3DJVInzt6pWrV0+mqS1Ltz2vVtuLi3ffea+P0TK3yy4ikoTRIobUMsFLqHIVI0FkC5Ui E0JGAJY8NcJkBAEh5CJNsuQ01vM8qmxPbQJdo0smWYKHMmK3Ww7WB3CNGq1lWx0cBAl4jEESAOEX rh3fuPHitasnm+0mImATePDxw/OLDSNkk5xbWhhQZrSMqmKEZI1hMiNg2AaZZLYwEIw2x7JsW2ZV TVNioErT1HrfRpuqhsFl9Ck9twYjokWQ4G4op0yG7FK1lqNKUiPQlzF62c6MCF+9enz79u31+oCk oaV3gI8fPf7ozt3Nslw/uTJKc5KgoD3D0zQD3mOQrU3TBLAvo00JQqOCyjZFsKqCIaO1lJTBeZ4Y GdGkigiA62kaYxgeo9ueptlAyzRAEgwgCpaRGa0v3XIfPTMjcOXk6NatW6v13urBw4fSuHLlaIx6 570Ptn2cHB9F0EO2lz5sZ7aWTapsraoMMBJgVUVQsuGJtB3BiLA9XJLJJoHgbllij5jmtWQAVT2A 7W4bJGBbra2MbthABJbeD9dzzE1yW7W2XRbbgFfr6dVXX7lyclJjPH36dHNxcePl67a/8c77F5vd PK2IGGVwLyBLQyrAkenCJSkjILdsy7JUaWqNyWyT5FKPDAZDCCbTY4wWKSkzLWY2u5alptZI4rlS uffWwnAQjCBYEkHJbRldQLY8Pjq8fevVeZ6X3a6qSB9fORxj3L3/8MGDU4It06YsIkuappmkrD2C BlRFcpQiWhIqZySB1qaqARuRNYokSAK2ptYiplp2VY7A1FoVV/MaULZmuwRbpICwPCySLaNlq1LL 1gBMmVObbt58+YXrL0QEgYvzMwZby93S79z9OBjr1WrsqeZ5WpYeEQDmaR41xrLIsMQ9AKSkKlXV er2StN0thCM4Z1RVZvbR5T1E8LkwEJF9DAYjW++7WpbW2mpabXYbgFUVGb33yFyWRTIZgFtmK/mV mzdW6xXBi/PN6F2q1XrObO9+/b2+jKm1zIiYxxgE52mKDEmjRAYjMugIAJJBRkTvY71eTVPbbLZV ygwLBkulPkYVkhFpc1n6PM/b7W6MEcnd0ltEa1mjZC99ZLaIyGy9LxEJYF6t+uiR8zy1JvnGjRev v3AN8LIsQQZT0Gpa3blz79mz89U0k4QxxpDUWkvGqD2RKGtezZQd7EvPTEaUZHiPIIDWUhIYAAgS iEuMSDLIspQZY4xEtgxJo8xAm9JyDZkeY/iSGFCx5GlCqdrJ1ZOXXrx+cnL87NmZ5b4MW+vV+vHp k/v3Pw4GgwRBjjEYQVISwXlqslpERgRQVrVsbbJZEsBR1cdYzfOoaq313seo1rL3zj2Q9LftliUi gxGkYRK2IyKDJjOjL52ELVswQUxtGlWZ0T7xxu2jo8PdbtntlvW8krRazYDv3L2zW4bBsdsdHR72 pZOcslnCJY+hbByjFFq1tizDRB9DpWmaMqKPUVU5TQAiYr1eESCdmYwYVQ2IJAgDQzW3SVJOVCEz p6mN3smoEohMRkSJUiXZptkqE221Wo1Row8L2+1utZoj+a1vffjs7FwIBtbzSqXIsGqMPk0TyNKl OSYhLPUqBDNCEglBbZ5kkSgVgJZZVYbtkgWZEbaxR2bLUWPXd+vV3IJwDJUXTS0iuNuNyHBkREpl Q6reu62M+L+1mYXRsC+UYAAAAABJRU5ErkJggg== "
       id="image70" />
    <path
       style="fill:#696969;stroke:#ff0000;stroke-width:1.4;stroke-linecap:butt;stroke-linejoin:miter;stroke-opacity:1;stroke-miterlimit:4;stroke-dasharray:none;marker-end:url(#TriangleStart);marker-start:url(#TriangleStart)"
       d="M 32,56.648691 H 9.5826452"
       id="path552" />
    <path
       style="fill:#000000;stroke:#000000;stroke-width:0.2;stroke-linecap:butt;stroke-linejoin:miter;stroke-opacity:1;stroke-dasharray:none;stroke-dashoffset:0"
       d="M 35.103684,64 V 0"
       id="path2279" />
    <path
       sodipodi:type="spiral"
       style="fill:none;fill-rule:evenodd;marker-end:url(#marker2343);stroke:#1e90ff;stroke-opacity:1;stroke-width:1.47685358;stroke-dasharray:none"
       id="path2337"
       sodipodi:cx="13.395329"
       sodipodi:cy="30.782366"
       sodipodi:expansion="0"
       sodipodi:revolution="0.69999999"
       sodipodi:radius="10.674913"
       sodipodi:argument="-1.9895229"
       sodipodi:t0="0"
       d="m 9.0549374,21.029685 c 5.3126016,-2.364352 11.7287196,0.09969 14.0930726,5.412289 2.364352,5.312601 -0.09969,11.72872 -5.412288,14.093072 -4.177896,1.859356 -9.2150939,0.787864 -12.2744872,-2.610978"
       transform="matrix(0.76773359,0,0,0.51651207,24.495829,40.747763)" />
  </g>
</svg>
